%YAML 1.1
%TAG !u! tag:unity3d.com,2011:
--- !u!1 &3211126601343130218
GameObject:
  m_ObjectHideFlags: 0
  m_CorrespondingSourceObject: {fileID: 0}
  m_PrefabInstance: {fileID: 0}
  m_PrefabAsset: {fileID: 0}
  serializedVersion: 6
  m_Component:
  - component: {fileID: 8718568974603326396}
  - component: {fileID: 3886900308649183714}
  - component: {fileID: 2464740720729130921}
  - component: {fileID: 5734571263048835367}
  - component: {fileID: 5127343937532986919}
  - component: {fileID: 5785435084634100985}
  m_Layer: 0
  m_Name: BoxEntity
  m_TagString: Untagged
  m_Icon: {fileID: 0}
  m_NavMeshLayer: 0
  m_StaticEditorFlags: 0
  m_IsActive: 1
--- !u!4 &8718568974603326396
Transform:
  m_ObjectHideFlags: 0
  m_CorrespondingSourceObject: {fileID: 0}
  m_PrefabInstance: {fileID: 0}
  m_PrefabAsset: {fileID: 0}
  m_GameObject: {fileID: 3211126601343130218}
  m_LocalRotation: {x: 0, y: 0, z: 0, w: 1}
  m_LocalPosition: {x: 0, y: 0, z: 0}
  m_LocalScale: {x: 1, y: 1, z: 1}
  m_ConstrainProportionsScale: 0
  m_Children: []
  m_Father: {fileID: 0}
  m_RootOrder: 0
  m_LocalEulerAnglesHint: {x: 0, y: 0, z: 0}
--- !u!33 &3886900308649183714
MeshFilter:
  m_ObjectHideFlags: 0
  m_CorrespondingSourceObject: {fileID: 0}
  m_PrefabInstance: {fileID: 0}
  m_PrefabAsset: {fileID: 0}
  m_GameObject: {fileID: 3211126601343130218}
  m_Mesh: {fileID: 10202, guid: 0000000000000000e000000000000000, type: 0}
--- !u!23 &2464740720729130921
MeshRenderer:
  m_ObjectHideFlags: 0
  m_CorrespondingSourceObject: {fileID: 0}
  m_PrefabInstance: {fileID: 0}
  m_PrefabAsset: {fileID: 0}
  m_GameObject: {fileID: 3211126601343130218}
  m_Enabled: 1
  m_CastShadows: 1
  m_ReceiveShadows: 1
  m_DynamicOccludee: 1
  m_StaticShadowCaster: 0
  m_MotionVectors: 1
  m_LightProbeUsage: 1
  m_ReflectionProbeUsage: 1
  m_RayTracingMode: 2
  m_RayTraceProcedural: 0
  m_RenderingLayerMask: 1
  m_RendererPriority: 0
  m_Materials:
  - {fileID: 10303, guid: 0000000000000000f000000000000000, type: 0}
  m_StaticBatchInfo:
    firstSubMesh: 0
    subMeshCount: 0
  m_StaticBatchRoot: {fileID: 0}
  m_ProbeAnchor: {fileID: 0}
  m_LightProbeVolumeOverride: {fileID: 0}
  m_ScaleInLightmap: 1
  m_ReceiveGI: 1
  m_PreserveUVs: 0
  m_IgnoreNormalsForChartDetection: 0
  m_ImportantGI: 0
  m_StitchLightmapSeams: 1
  m_SelectedEditorRenderState: 3
  m_MinimumChartSize: 4
  m_AutoUVMaxDistance: 0.5
  m_AutoUVMaxAngle: 89
  m_LightmapParameters: {fileID: 0}
  m_SortingLayerID: 0
  m_SortingLayer: 0
  m_SortingOrder: 0
  m_AdditionalVertexStreams: {fileID: 0}
--- !u!114 &5734571263048835367
MonoBehaviour:
  m_ObjectHideFlags: 0
  m_CorrespondingSourceObject: {fileID: 0}
  m_PrefabInstance: {fileID: 0}
  m_PrefabAsset: {fileID: 0}
  m_GameObject: {fileID: 3211126601343130218}
  m_Enabled: 1
  m_EditorHideFlags: 0
  m_Script: {fileID: 11500000, guid: 836dcb7e0f6259748b850a10912ce727, type: 3}
  m_Name: 
  m_EditorClassIdentifier: 
  TransformMode: 1
  Transform2DVertical:
    IsEnabled: 0
    Height:
      RawValue: 0
    PositionOffset:
      RawValue: 0
  PhysicsCollider:
    IsTrigger: 0
    Material:
      Id:
        Value: 0
    SourceCollider: {fileID: 0}
    IsEnabled: 1
    Shape2D:
      ShapeType: 0
      PolygonCollider:
        Id:
          Value: 0
      CircleRadius:
        RawValue: 0
      EdgeExtent:
        RawValue: 0
      BoxExtents:
        X:
          RawValue: 0
        Y:
          RawValue: 0
      PositionOffset:
        X:
          RawValue: 0
        Y:
          RawValue: 0
      RotationOffset:
        RawValue: 0
      UserTag: 0
      IsPersistent: 1
      CompoundShapes: []
      IsSetFromSourceCollider: 0
    Shape3D:
      ShapeType: 2
      SphereRadius:
        RawValue: 0
      PositionOffset:
        X:
          RawValue: 0
        Y:
          RawValue: 0
        Z:
          RawValue: 0
      BoxExtents:
        X:
          RawValue: 32768
        Y:
          RawValue: 32768
        Z:
          RawValue: 32768
      RotationOffset:
        X:
          RawValue: 0
        Y:
          RawValue: 0
        Z:
          RawValue: 0
      UserTag: 0
      IsPersistent: 1
      CompoundShapes: []
      IsSetFromSourceCollider: 0
    Layer: 0
    CallbackFlags:
      Value: 0
  PhysicsBody:
    IsEnabled: 0
    Version2D: 0
    Version3D: 0
    Config2D: 116
    Config3D: 58
    RotationFreeze: 0
    Mass:
      RawValue: 65536
    Drag:
      RawValue: 32768
    AngularDrag:
      RawValue: 32768
    CenterOfMass2D:
      X:
        RawValue: 0
      Y:
        RawValue: 0
    CenterOfMass3D:
      X:
        RawValue: 0
      Y:
        RawValue: 0
      Z:
        RawValue: 0
    GravityScale:
      _hasValue: 0
      _value:
        RawValue: 65536
  NavMeshPathfinder:
    IsEnabled: 0
    NavMeshAgentConfig:
      Id:
        Value: 0
    InitialTarget:
      IsEnabled: 0
      Target: {fileID: 0}
      Position:
        X:
          RawValue: 0
        Y:
          RawValue: 0
        Z:
          RawValue: 0
      NavMesh:
        Reference: {fileID: 0}
        Asset:
          Id:
            Value: 0
        Name: 
  NavMeshSteeringAgent:
    IsEnabled: 0
    MaxSpeed:
      IsEnabled: 0
      Value:
        RawValue: 0
    Acceleration:
      IsEnabled: 0
      Value:
        RawValue: 0
  NavMeshAvoidanceAgent:
    IsEnabled: 0
  View:
    Id:
      Value: 0
--- !u!114 &5127343937532986919
MonoBehaviour:
  m_ObjectHideFlags: 0
  m_CorrespondingSourceObject: {fileID: 0}
  m_PrefabInstance: {fileID: 0}
  m_PrefabAsset: {fileID: 0}
  m_GameObject: {fileID: 3211126601343130218}
  m_Enabled: 1
  m_EditorHideFlags: 0
  m_Script: {fileID: 11500000, guid: 0008c51fe3af00b4da5d44f02d9b3dff, type: 3}
  m_Name: 
  m_EditorClassIdentifier: 
  BindBehaviour: 0
  ManualDisposal: 0
  GameObjectNameIsEntityRef: 1
  ErrorCorrectionRateMin: 3.3
  ErrorCorrectionRateMax: 10
  ErrorPositionBlendStart: 0.25
  ErrorPositionBlendEnd: 1
  ErrorRotationBlendStart: 0.1
  ErrorRotationBlendEnd: 0.5
  ErrorPositionMinCorrection: 0.025
  ErrorPositionTeleportDistance: 2
  ErrorRotationTeleportDistance: 0.5
  OnEntityInstantiated:
    m_PersistentCalls:
      m_Calls: []
  OnEntityDestroyed:
    m_PersistentCalls:
      m_Calls: []
--- !u!114 &5785435084634100985
MonoBehaviour:
  m_ObjectHideFlags: 0
  m_CorrespondingSourceObject: {fileID: 0}
  m_PrefabInstance: {fileID: 0}
  m_PrefabAsset: {fileID: 0}
  m_GameObject: {fileID: 3211126601343130218}
  m_Enabled: 1
  m_EditorHideFlags: 0
  m_Script: {fileID: 11500000, guid: 94c17883f25dfb648951c6d7695cf0c3, type: 3}
  m_Name: 
  m_EditorClassIdentifier: 
  Prototype:
    hp:
      RawValue: 655360
--- !u!114 &-5097137043078969163
MonoBehaviour:
  m_ObjectHideFlags: 0
  m_CorrespondingSourceObject: {fileID: 0}
  m_PrefabInstance: {fileID: 0}
  m_PrefabAsset: {fileID: 0}
  m_GameObject: {fileID: 0}
  m_Enabled: 1
  m_EditorHideFlags: 0
  m_Script: {fileID: 11500000, guid: 0120b722c3ca5454da1240b65656905f, type: 3}
  m_Name: BoxEntityEntityPrototype
  m_EditorClassIdentifier: 
  Settings:
    Identifier:
      Path: Resources/DB/BoxEntity|EntityPrototype
      Guid:
        Value: 106218862972020978
  Parent: {fileID: 5734571263048835367}
--- !u!114 &-3835896840563967728
MonoBehaviour:
  m_ObjectHideFlags: 0
  m_CorrespondingSourceObject: {fileID: 0}
  m_PrefabInstance: {fileID: 0}
  m_PrefabAsset: {fileID: 0}
  m_GameObject: {fileID: 0}
  m_Enabled: 1
  m_EditorHideFlags: 0
  m_Script: {fileID: 11500000, guid: 4d5baec4de8d2754a864a680181831e8, type: 3}
  m_Name: BoxEntityEntityView
  m_EditorClassIdentifier: 
  Settings:
    Identifier:
      Path: Resources/DB/BoxEntity|EntityView
      Guid:
        Value: 2557538718656369557
  Parent: {fileID: 5127343937532986919}
